@startuml
!define LIGHTBLUE
'!includeurl https://raw.githubusercontent.com/Drakemor/RedDress-PlantUML/master/style.puml

'__Title
title
PERSONAL FINANCE MANAGEMENT

<u>US001</u> <b>Check if 2 people are siblings</b>
Controller REST Sequence Diagram - <i>Sprint 6</i>

end title


participant ":HTTP Client"
participant "Tomcat (Web Server)"
participant ":US001_CheckIfSiblingsControllerRest"
ref over ":HTTP Client", "Tomcat (Web Server)", ":US001_CheckIfSiblingsControllerRest" : SD_Tomcat_Generic Processing Representation\n

participant "booleanDTOAssembler \n:BooleanDTOAssembler"
participant "checkIfSiblingsDTOAssembler \n:CheckIfSiblingsDTOAssembler"
participant "us001CheckIfSiblingsService \n:US001CheckIfSiblingsService"

'Send info to checkIfSiblingsDTOAssembler in order to create a checkIfSiblingsDTO

":US001_CheckIfSiblingsControllerRest" [#blue]-> "checkIfSiblingsDTOAssembler \n:CheckIfSiblingsDTOAssembler": createDTOFromPrimitiveTypes(personA_email, personB_email)
activate ":US001_CheckIfSiblingsControllerRest" #34b7eb
activate "checkIfSiblingsDTOAssembler \n:CheckIfSiblingsDTOAssembler" #34b7eb
"checkIfSiblingsDTOAssembler \n:CheckIfSiblingsDTOAssembler" [#blue]-> "checkIfSiblingsDTO \n:CheckIfSiblingsDTO": createDTOFromPrimitveTypes(personA_email, personB_email)
return checkIfSiblingsDTO

deactivate "checkIfSiblingsDTOAssembler \n:CheckIfSiblingsDTOAssembler" #34b7eb
":US001_CheckIfSiblingsControllerRest" -[hidden]-> ":US001_CheckIfSiblingsControllerRest"

'Send info to US001CheckIfSiblingsService

":US001_CheckIfSiblingsControllerRest" [#blue]-->  "us001CheckIfSiblingsService \n:US001CheckIfSiblingsService" : <b>checkIfSiblings</b>(checkIfSiblingsDTO)
activate "us001CheckIfSiblingsService \n:US001CheckIfSiblingsService" #34b7eb

'get personA_Email


"us001CheckIfSiblingsService \n:US001CheckIfSiblingsService" [#blue]->  "checkIfSiblingsDTO \n:CheckIfSiblingsDTO" : getpersonA_Email()

activate "checkIfSiblingsDTO \n:CheckIfSiblingsDTO" #34b7eb
return String <b>personA_Email</b>
deactivate "checkIfSiblingsDTO \n:CheckIfSiblingsDTO"

'get personB_Email


"us001CheckIfSiblingsService \n:US001CheckIfSiblingsService" [#blue]->  "checkIfSiblingsDTO \n:CheckIfSiblingsDTO" : getpersonB_Email()

activate "checkIfSiblingsDTO \n:CheckIfSiblingsDTO" #34b7eb
return String <b>personB_Email</b>
deactivate "checkIfSiblingsDTO \n:CheckIfSiblingsDTO"

'Create personA_ID

participant "PersonID"

"us001CheckIfSiblingsService \n:US001CheckIfSiblingsService" [#blue]-> "PersonID" : createPersonID(personA_Email)

activate "PersonID" #34b7eb
ref over "PersonID" : SD_PersonID

return personA_ID
deactivate "PersonID" #34b7eb

'Create personB_ID

"us001CheckIfSiblingsService \n:US001CheckIfSiblingsService" [#blue]-> "PersonID" : createPersonID(personB_Email)

activate "PersonID" #34b7eb
ref over "PersonID" : SD_PersonID

return personB_ID
deactivate "PersonID" #34b7eb

'Find personA_ById in the personRepository

participant "personRepository \n:PersonRepository"
participant "personA_ \n:Person"

"us001CheckIfSiblingsService \n:US001CheckIfSiblingsService" [#blue]-> "personRepository \n:PersonRepository" : findPersonByPersonID(personA_ID)
activate "personRepository \n:PersonRepository" #34b7eb
return personA_

'Find personB_ById in the personRepository

"us001CheckIfSiblingsService \n:US001CheckIfSiblingsService" [#blue]-> "personRepository \n:PersonRepository" :findPersonByPersonID(personB_ID)
activate "personRepository \n:PersonRepository" #34b7eb
return personB_

'Verify if personB_ is sibling of personA_

"us001CheckIfSiblingsService \n:US001CheckIfSiblingsService" [#blue]-> "personA_ \n:Person" : <b>verifyIfSibling</b>  = verifySiblingsOrHalfSiblings(personB_);
activate "personA_ \n:Person" #34b7eb
return isSibling
deactivate "personA_ \n:Person"

'Send info to BooleanDTOAssembler in order to create a BooleanDTO

"booleanDTOAssembler \n:BooleanDTOAssembler"  <-[#blue] "us001CheckIfSiblingsService \n:US001CheckIfSiblingsService" : createDTOFromPrimitiveTypes\n(isSibling, msg);
ref over "booleanDTOAssembler \n:BooleanDTOAssembler"
SD_BooleanDTOAssembler
end ref
deactivate "us001CheckIfSiblingsService \n:US001CheckIfSiblingsService"

'Return to the US001_CheckIfSiblingsControllerRest a BooleanDTO composed by a boolean result true for an happy path and
'a simple message of SUCCESS

":US001_CheckIfSiblingsControllerRest"  <-[#blue] "booleanDTOAssembler \n:BooleanDTOAssembler" : BooleanDTO <b>result</b>

ref over ":HTTP Client", "Tomcat (Web Server)", ":US001_CheckIfSiblingsControllerRest" : SD_Tomcat_Generic Processing Representation\n

deactivate ":US001_CheckIfSiblingsControllerRest"


@enduml