{
	"info": {
		"_postman_id": "4261b2d1-624f-4520-b20e-20e4ef2848cb",
		"name": "Sprint 5 - US006CreatePersonAccountControllerREST",
		"schema": "https://schema.getpostman.com/json/collection/v2.1.0/collection.json"
	},
	"item": [
		{
			"name": "createPersonAccountSuccsess",
			"event": [
				{
					"listen": "test",
					"script": {
						"id": "4f9c4812-a477-46e6-8245-b5d4765004c0",
						"exec": [
							"pm.test(\"Response Status\", function () {",
							"    pm.response.to.have.status(201);",
							"});",
							"",
							"pm.test(\"Response Body\", function () {",
							"    var jsonData = pm.response.json();",
							"    pm.expect(jsonData.result).to.eql(true);",
							"    pm.expect(jsonData.msg).to.eql(\"Account created and added\");",
							"",
							"});"
						],
						"type": "text/javascript"
					}
				}
			],
			"request": {
				"method": "POST",
				"header": [],
				"body": {
					"mode": "raw",
					"raw": "{\n\t\"email\" : \"manuel@gmail.com\",\n\t\"description\" : \"Tickets for Roland Garros 2020\",\n\t\"denomination\" : \"Tennis\"\n}",
					"options": {
						"raw": {
							"language": "json"
						}
					}
				},
				"url": {
					"raw": "localhost:8080/createPersonAccount",
					"host": [
						"localhost"
					],
					"port": "8080",
					"path": [
						"createPersonAccount"
					]
				}
			},
			"response": []
		},
		{
			"name": "createPersonAccountAccountAlreadyExists",
			"event": [
				{
					"listen": "test",
					"script": {
						"id": "4f9c4812-a477-46e6-8245-b5d4765004c0",
						"exec": [
							"pm.test(\"Response Status\", function () {",
							"    pm.response.to.have.status(200);",
							"});",
							"",
							"pm.test(\"Response Body\", function () {",
							"    var jsonData = pm.response.json();",
							"    pm.expect(jsonData.result).to.eql(false);",
							"    pm.expect(jsonData.msg).to.eql(\"Account already exists\");",
							"",
							"});"
						],
						"type": "text/javascript"
					}
				}
			],
			"request": {
				"method": "POST",
				"header": [],
				"body": {
					"mode": "raw",
					"raw": "{\n\t\"email\" : \"manuel@gmail.com\",\n\t\"description\" : \"Tickets for Roland Garros 2020\",\n\t\"denomination\" : \"Wallet\"\n}",
					"options": {
						"raw": {
							"language": "json"
						}
					}
				},
				"url": {
					"raw": "localhost:8080/createPersonAccount",
					"host": [
						"localhost"
					],
					"port": "8080",
					"path": [
						"createPersonAccount"
					]
				}
			},
			"response": []
		},
		{
			"name": "createPersonAccountPersonDoesNotExist",
			"event": [
				{
					"listen": "test",
					"script": {
						"id": "4f9c4812-a477-46e6-8245-b5d4765004c0",
						"exec": [
							"pm.test(\"Response Status\", function () {",
							"    pm.response.to.have.status(200);",
							"});",
							"",
							"pm.test(\"Response Body\", function () {",
							"    var jsonData = pm.response.json();",
							"    pm.expect(jsonData.result).to.eql(false);",
							"    pm.expect(jsonData.msg).to.eql(\"Person does not exist\");",
							"",
							"});"
						],
						"type": "text/javascript"
					}
				}
			],
			"request": {
				"method": "POST",
				"header": [],
				"body": {
					"mode": "raw",
					"raw": "{\n\t\"email\" : \"raquel@gmail.com\",\n\t\"description\" : \"Tickets for Roland Garros 2020\",\n\t\"denomination\" : \"Tennis\"\n}",
					"options": {
						"raw": {
							"language": "json"
						}
					}
				},
				"url": {
					"raw": "localhost:8080/createPersonAccount",
					"host": [
						"localhost"
					],
					"port": "8080",
					"path": [
						"createPersonAccount"
					]
				}
			},
			"response": []
		}
	],
	"protocolProfileBehavior": {}
}