@startuml
!define LIGHTBLUE
!includeurl https://raw.githubusercontent.com/Drakemor/RedDress-PlantUML/master/style.puml
hide footbox
participant ":Controller_US010Test"
create "ledger:Ledger"
"aquamanGroup:Group" [#blue]-> "ledger:Ledger": create
'box "Users" #LightBlue
create "controllerUs10:Controller_US010"
":Controller_US010Test" [#blue]-> "controllerUs10:Controller_US010": create
participant "aquaman:Person"
participant "aquamanGroup:Group"
participant "ledger:Ledger"
'participant "categorySalary:Category"
'participant "accountDebit:Account"
'participant "accountCredit:Account"
'participant "accountCredit:Transaction"
'participant "accountCredit:Transaction"
'end box
'participant "categories:CategoryList"
'participant "category:Category"
'"controllerUs10:Controller_US010" [#blue]-> "categories:CategoryList": create
":Controller_US010Test" [#blue]-> "controllerUs10:Controller_US010":ArrayList<Transaction> <b>result</b> = \nobtainAllTheMovementsBetweenTwoDatesOfAccount(aquaman,\naquamanGroup,debitAccount,dateOfBeginning, dateOfEnding)
"controllerUs10:Controller_US010" [#blue]-> "aquamanGroup:Group": getAllTheTransactionsOfAccountWithinACertainPeriodOfTime(account,\ndateOfBeginning, dateOfEnding);
"aquamanGroup:Group" [#blue]-> "ledger:Ledger": getRecordsBetweenTwoDatesOfADeterminedAccount(account,\ndateOfBeginning, dateOfEnding)
'create "category:Category"
'"categories:CategoryList" [#blue]-> "category:Category": create
'participant "ac1:Account"
'        "controllerUs10:Controller_US010" [#blue]-> "denominationFood:CategoryList": personJoana=ew/create
'participant "denominationFood:CategoryList"
'
'create "ac1:Account"
'        "controllerUs10:Controller_US010" [#blue]-> "ac1:Account": new/create
'        "controllerUs10:Controller_US010" [#blue]-> "denominationFood:CategoryList": ADDACOUNT
'"controllerUs10:Controller_US010" -> "controllerUs10:Controller_US010" : addCategory
'"categories:CategoryList" -> "categories:CategoryList" : add(category)
participant "expectedTransaction:ArrayList<Transaction>"
":Controller_US010Test" [#blue]-> ":Controller_US010Test":  assertEquals(expectedTransaction,\n<b>result</b>);
'"controllerUs10:Controller_US010" [#blue]--> ":Controller_US010Test":
'"expectedCategoryList:CategoryList" [#blue]--> ":Controller_US010Test": AssertTrue()
'return AssertTrue()
@enduml