@startuml
scale 1.5

'__Layout
skinparam class {
BackgroundColor #F2F2F2
ArrowColor #404040
BorderColor #7F7F7F
}

skinparam classAttributeIconSize 0
left to right direction

'__Title
title <b>"Personal Finance Management"</b>\nDesign Class Diagram US017


'__Design classes

class Ledger {
- records : ArrayList<Transaction>
+ addTransaction()
+ createTransaction()
+ getAmountBetweenTwoDates()
(...)
}

class Person {
- birthdate : String
- birthplace : String
- name : String
- siblings : ArrayList<Person>

+ createAccount()
+ createCategory()
+ createTransaction()
+ getAmountBetweenTwoDates()
(...)
}

class Controler_US017 {
+ getPersonAmountBetweenTwoDates()
}

Controler_US017 ..> Person
Person "1" *--> "1" Ledger


'__Dependency relationships
'GroupList ..> Group : «create»
'Group ..> CategoryList : «create»
'Group ..> Ledger : «create»
'Group ..> Person : «create»
'Group ..> AccountList : «create»
'PersonList ..> Person : «create»
'Person ..> CategoryList : «create»
'Person ..> Ledger : «create»
'Person ..> AccountList : «create»
'CategoryList ..> Category : «create»
'Ledger ..> Transaction : «create»
'AccountList ..> Account : «create»

@enduml