@startuml

scale 1.35

'__Layout
skinparam class {
BackgroundColor #F2F2F2
ArrowColor #404040
BorderColor #7F7F7F
}

skinparam classAttributeIconSize 0

left to right direction

'__Title
title <b>"Personal Finance Management"</b>\nDesign Class Diagram US06

'__Design classes

class Controller_US06 {
+ createAccount()
}

class Service_US06 {
+ createAccount()
(...)
}

interface IAccountRepository {
}

class AccountRepository {
- account : List<Account>
+ existsAccount()
+ saveAccount()
}

package AggregateAccount <<Folder>> {
class Account {
- accountID : AccountID
+ createAccount()
(...)
}
}

interface IPersonRepository {
}

class PersonRepository {
- personRepository : List<Person>
+ findPersonByPersonID()
}

package AggregatePerson <<Folder>> {
class Person {
- personID : PersonID
+ checkIfPersonHasAccount()
+ addAccount()
(...)
}
}

'__Associations
'__Dependency relationships

Controller_US06 ..> Service_US06
Service_US06 --> IAccountRepository
Service_US06 --> IPersonRepository
IAccountRepository <.. AccountRepository
IPersonRepository <.. PersonRepository
AccountRepository *-down-> "*" Account
PersonRepository *-down-> "*" Person


@enduml